R4ds Chapter 5 Data Transformation Yuqing Xue Personal Note
…
5.6.6 Ungrouping

5.1 Introduction

nycflights13

##########################################
####### Dataset: nycflights13::flights
########################################## 
library(nycflights13)
library(tidyverse)
nycflights13::flights

## # A tibble: 336,776 x 19
##     year month   day dep_time sched_dep_time dep_delay arr_time
##    <int> <int> <int>    <int>          <int>     <dbl>    <int>
## 1   2013     1     1      517            515         2      830
## 2   2013     1     1      533            529         4      850
## 3   2013     1     1      542            540         2      923
## 4   2013     1     1      544            545        -1     1004
## 5   2013     1     1      554            600        -6      812
## 6   2013     1     1      554            558        -4      740
## 7   2013     1     1      555            600        -5      913
## 8   2013     1     1      557            600        -3      709
## 9   2013     1     1      557            600        -3      838
## 10  2013     1     1      558            600        -2      753
## # ... with 336,766 more rows, and 12 more variables: sched_arr_time <int>,
## #   arr_delay <dbl>, carrier <chr>, flight <int>, tailnum <chr>,
## #   origin <chr>, dest <chr>, air_time <dbl>, distance <dbl>, hour <dbl>,
## #   minute <dbl>, time_hour <dttm>
…
Explore, try %in%

jan1 <- filter(flights, month == 1, day == 1)

nov_and_dec = filter(flights, month == 11 | month == 12)
## A useful short-hand for this problem is x %in% y. This will select every row where x is one of the values in y.
nov_dec <- filter(flights, month %in% c(11, 12))

NYCtoSF <-  
  flights %>% 
    filter(dest %in% c("SFO", "OAK", "SJC")) %>%
      select(year, month, day, carrier, origin, dest, air_time)
NYCtoSF

## # A tibble: 13,972 x 7
##     year month   day carrier origin  dest air_time
##    <int> <int> <int>   <chr>  <chr> <chr>    <dbl>
## 1   2013     1     1      UA    EWR   SFO      361
## 2   2013     1     1      UA    JFK   SFO      366
## 3   2013     1     1      DL    JFK   SFO      362
## 4   2013     1     1      VX    JFK   SFO      356
## 5   2013     1     1      B6    JFK   SFO      350
## 6   2013     1     1      AA    JFK   SFO      378
## 7   2013     1     1      UA    EWR   SFO      373
## 8   2013     1     1      UA    JFK   SFO      369
## 9   2013     1     1      UA    EWR   SFO      357
## 10  2013     1     1      AA    JFK   SFO      389
## # ... with 13,962 more rows

NYCtoSF2 <-  
  flights %>% 
    filter(dest == "SFO" | dest == "OAK" |  dest == "SJC") %>%
      select(year, month, day, carrier, origin, dest, air_time)
NYCtoSF2

## # A tibble: 13,972 x 7
##     year month   day carrier origin  dest air_time
##    <int> <int> <int>   <chr>  <chr> <chr>    <dbl>
## 1   2013     1     1      UA    EWR   SFO      361
## 2   2013     1     1      UA    JFK   SFO      366
## 3   2013     1     1      DL    JFK   SFO      362
## 4   2013     1     1      VX    JFK   SFO      356
## 5   2013     1     1      B6    JFK   SFO      350
## 6   2013     1     1      AA    JFK   SFO      378
## 7   2013     1     1      UA    EWR   SFO      373
## 8   2013     1     1      UA    JFK   SFO      369
## 9   2013     1     1      UA    EWR   SFO      357
## 10  2013     1     1      AA    JFK   SFO      389
## # ... with 13,962 more rows
…
1.5. Arrived more than two hours late, but didnt leave late

1.6. Were delayed by at least an hour, but made up over 30 minutes in flight

1.7. Departed between midnight and 6am (inclusive)

Ex1.1 <- 
  flights %>%
    filter(arr_delay >= 120) %>%
      arrange(desc(arr_delay)) %>%
        select(month, day, carrier, origin, dest, dep_delay, arr_delay)
Ex1.1

## # A tibble: 10,200 x 7
##    month   day carrier origin  dest dep_delay arr_delay
##    <int> <int>   <chr>  <chr> <chr>     <dbl>     <dbl>
## 1      1     9      HA    JFK   HNL      1301      1272
## 2      6    15      MQ    JFK   CMH      1137      1127
## 3      1    10      MQ    EWR   ORD      1126      1109
## 4      9    20      AA    JFK   SFO      1014      1007
## 5      7    22      MQ    JFK   CVG      1005       989
## 6      4    10      DL    JFK   TPA       960       931
## 7      3    17      DL    LGA   MSP       911       915
## 8      7    22      DL    LGA   ATL       898       895
## 9     12     5      AA    EWR   MIA       896       878
## 10     5     3      MQ    EWR   ORD       878       875
## # ... with 10,190 more rows
…
2. Another useful dplyr filtering helper is between(). What does it do? Can you use it to simplify the code needed to answer the previous challenges?

?between
Ex1.4b = filter(flights, between(month, 7, 9))

3. How many flights have a missing dep_time? What other variables are missing? What might these rows represent?

sum(is.na(flights$dep_time)) # 8255

## [1] 8255

flights_missing_dep_time <- flights %>% filter(is.na(dep_time))
flights_missing_dep_time 

## # A tibble: 8,255 x 19
##     year month   day dep_time sched_dep_time dep_delay arr_time
##    <int> <int> <int>    <int>          <int>     <dbl>    <int>
## 1   2013     1     1       NA           1630        NA       NA
## 2   2013     1     1       NA           1935        NA       NA
## 3   2013     1     1       NA           1500        NA       NA
## 4   2013     1     1       NA            600        NA       NA
## 5   2013     1     2       NA           1540        NA       NA
## 6   2013     1     2       NA           1620        NA       NA
## 7   2013     1     2       NA           1355        NA       NA
## 8   2013     1     2       NA           1420        NA       NA
## 9   2013     1     2       NA           1321        NA       NA
## 10  2013     1     2       NA           1545        NA       NA
## # ... with 8,245 more rows, and 12 more variables: sched_arr_time <int>,
## #   arr_delay <dbl>, carrier <chr>, flight <int>, tailnum <chr>,
## #   origin <chr>, dest <chr>, air_time <dbl>, distance <dbl>, hour <dbl>,
## #   minute <dbl>, time_hour <dttm>
…
FALSE & NA returns FALSE, because operator & returns TRUE when both terms are true. The left half is FALSE, so the whole expression returns FALSE despite the NA on the right half.

NA * 0

## [1] NA

NA * 0 returns 0, whicn may rendered the general rule we discovered from the previous not definite: if NA represent a value that is Inf, and we know Inf * 0 should not be a number, i.e., NaN.

5.3 Arrange

arrange() works similarly to filter() except that instead of selecting rows, it changes their order. It takes a data frame and a set of column names (or more complicated expressions) to order by. If you provide more than one column name, each additional column will be used to break ties in the values of preceding columns:

arrange(flights, year, month, day)

## # A tibble: 336,776 x 19
##     year month   day dep_time sched_dep_time dep_delay arr_time
##    <int> <int> <int>    <int>          <int>     <dbl>    <int>
## 1   2013     1     1      517            515         2      830
## 2   2013     1     1      533            529         4      850
## 3   2013     1     1      542            540         2      923
## 4   2013     1     1      544            545        -1     1004
## 5   2013     1     1      554            600        -6      812
## 6   2013     1     1      554            558        -4      740
## 7   2013     1     1      555            600        -5      913
## 8   2013     1     1      557            600        -3      709
## 9   2013     1     1      557            600        -3      838
## 10  2013     1     1      558            600        -2      753
## # ... with 336,766 more rows, and 12 more variables: sched_arr_time <int>,
## #   arr_delay <dbl>, carrier <chr>, flight <int>, tailnum <chr>,
## #   origin <chr>, dest <chr>, air_time <dbl>, distance <dbl>, hour <dbl>,
## #   minute <dbl>, time_hour <dttm>

arrange(flights, desc(arr_delay))

## # A tibble: 336,776 x 19
##     year month   day dep_time sched_dep_time dep_delay arr_time
##    <int> <int> <int>    <int>          <int>     <dbl>    <int>
## 1   2013     1     9      641            900      1301     1242
## 2   2013     6    15     1432           1935      1137     1607
## 3   2013     1    10     1121           1635      1126     1239
## 4   2013     9    20     1139           1845      1014     1457
## 5   2013     7    22      845           1600      1005     1044
## 6   2013     4    10     1100           1900       960     1342
## 7   2013     3    17     2321            810       911      135
## 8   2013     7    22     2257            759       898      121
## 9   2013    12     5      756           1700       896     1058
## 10  2013     5     3     1133           2055       878     1250
## # ... with 336,766 more rows, and 12 more variables: sched_arr_time <int>,
## #   arr_delay <dbl>, carrier <chr>, flight <int>, tailnum <chr>,
## #   origin <chr>, dest <chr>, air_time <dbl>, distance <dbl>, hour <dbl>,
## #   minute <dbl>, time_hour <dttm>
…
2. Sort flights to find the most delayed flights. Find the flights that left earliest.

colnames(flights)

##  [1] "year"           "month"          "day"            "dep_time"      
##  [5] "sched_dep_time" "dep_delay"      "arr_time"       "sched_arr_time"
##  [9] "arr_delay"      "carrier"        "flight"         "tailnum"       
## [13] "origin"         "dest"           "air_time"       "distance"      
## [17] "hour"           "minute"         "time_hour"

flights %>% 
  arrange(desc(arr_delay))

## # A tibble: 336,776 x 19
##     year month   day dep_time sched_dep_time dep_delay arr_time
##    <int> <int> <int>    <int>          <int>     <dbl>    <int>
## 1   2013     1     9      641            900      1301     1242
## 2   2013     6    15     1432           1935      1137     1607
## 3   2013     1    10     1121           1635      1126     1239
## 4   2013     9    20     1139           1845      1014     1457
## 5   2013     7    22      845           1600      1005     1044
## 6   2013     4    10     1100           1900       960     1342
## 7   2013     3    17     2321            810       911      135
## 8   2013     7    22     2257            759       898      121
## 9   2013    12     5      756           1700       896     1058
## 10  2013     5     3     1133           2055       878     1250
## # ... with 336,766 more rows, and 12 more variables: sched_arr_time <int>,
## #   arr_delay <dbl>, carrier <chr>, flight <int>, tailnum <chr>,
## #   origin <chr>, dest <chr>, air_time <dbl>, distance <dbl>, hour <dbl>,
## #   minute <dbl>, time_hour <dttm>

flights %>%
  arrange(dep_time)

## # A tibble: 336,776 x 19
##     year month   day dep_time sched_dep_time dep_delay arr_time
##    <int> <int> <int>    <int>          <int>     <dbl>    <int>
## 1   2013     1    13        1           2249        72      108
## 2   2013     1    31        1           2100       181      124
## 3   2013    11    13        1           2359         2      442
## 4   2013    12    16        1           2359         2      447
## 5   2013    12    20        1           2359         2      430
## 6   2013    12    26        1           2359         2      437
## 7   2013    12    30        1           2359         2      441
## 8   2013     2    11        1           2100       181      111
## 9   2013     2    24        1           2245        76      121
## 10  2013     3     8        1           2355         6      431
## # ... with 336,766 more rows, and 12 more variables: sched_arr_time <int>,
## #   arr_delay <dbl>, carrier <chr>, flight <int>, tailnum <chr>,
## #   origin <chr>, dest <chr>, air_time <dbl>, distance <dbl>, hour <dbl>,
## #   minute <dbl>, time_hour <dttm>
…
3. Sort flights to find the fastest flights.

time form needs to be clearer, answer not reliable

Idea: create a variable travelTime to measure the flight time (arr_time - dep_time. Noted that dep_time and arr_time are coded in a form that is intuitive to read and comprehend, but a little harder to make further calculation with, because theyre not continuous. A more convenient representation of number of minutes since midnight are yet to be computed. So travelTime are neither real minutes nor hours and minutes like dep_time and arr_time. More details and discussion can be found in exersice 5.5.2 problem 2. http://r4ds.had.co.nz/transform.html#exercises-10).

Tricky: The way how dep_time and arr_time is coded needs a slightly modification.

flights %>% 
  mutate(travelTime = ifelse(arr_time - dep_time < 0, arr_time + 2400 - dep_time, arr_time - dep_time)) %>%
    select(origin, dest, dep_time, sched_dep_time, arr_time, sched_arr_time, travelTime) %>%
      arrange(travelTime)

## # A tibble: 336,776 x 7
##    origin  dest dep_time sched_dep_time arr_time sched_arr_time travelTime
##     <chr> <chr>    <int>          <int>    <int>          <int>      <dbl>
## 1     EWR   BDL     1323           1325     1358           1421         35
## 2     EWR   BDL     1312           1316     1347           1413         35
## 3     EWR   BDL     1203           1153     1238           1250         35
## 4     EWR   BDL      722            730      758            830         36
## 5     EWR   BDL      722            729      758            830         36
## 6     EWR   BDL      718            725      754            822         36
## 7     EWR   BDL     1418           1329     1455           1426         37
## 8     EWR   BDL       16           2159       53           2304         37
## 9     EWR   BDL      717            725      754            822         37
## 10    EWR   BDL     1315           1320     1353           1419         38
## # ... with 336,766 more rows

# and the slowest flights 
flights %>%
  mutate(travelTime = ifelse(arr_time - dep_time < 0, arr_time + 2400 - dep_time, arr_time - dep_time)) %>%
    select(origin, dest, dep_time, sched_dep_time, arr_time, sched_arr_time, travelTime) %>%
      arrange(desc(travelTime))

## # A tibble: 336,776 x 7
##    origin  dest dep_time sched_dep_time arr_time sched_arr_time travelTime
##     <chr> <chr>    <int>          <int>    <int>          <int>      <dbl>
## 1     EWR   ORD     1623           1545     1148           1710       1925
## 2     EWR   DFW      959            920     2129           1240       1170
## 3     LGA   ATL     1500           1459      245           1737       1145
## 4     EWR   LAX     1259           1300     2358           1555       1099
## 5     JFK   BOS     2313           2050     1003           2203       1090
## 6     EWR   GSP      653            659     1704            857       1051
## 7     JFK   LAX      625            630     1635            922       1010
## 8     LGA   ATL     1415           1355       18           1617       1003
## 9     LGA   DEN      755            800     1737           1025        982
## 10    JFK   SLC      644            655     1624           1030        980
## # ... with 336,766 more rows
flights_Testimate <- flights %>%
  mutate(travelTime = ifelse(arr_time - dep_time < 0, arr_time + 2400 - dep_time, arr_time - dep_time)) 

The most unexpected flights, like the one from EWR to ORD that took 19 hours 25 minutes, can be spotted and further investigated.

4. Which flights travelled the longest? Which travelled the shortest?

Idea: sort variable distance

# The longest flights
flights_Testimate %>%
  select(carrier:distance, travelTime) %>%
    arrange(desc(distance))

## # A tibble: 336,776 x 8
##    carrier flight tailnum origin  dest air_time distance travelTime
##      <chr>  <int>   <chr>  <chr> <chr>    <dbl>    <dbl>      <dbl>
## 1       HA     51  N380HA    JFK   HNL      659     4983        659
## 2       HA     51  N380HA    JFK   HNL      638     4983        616
## 3       HA     51  N380HA    JFK   HNL      616     4983        590
## 4       HA     51  N384HA    JFK   HNL      639     4983        616
## 5       HA     51  N381HA    JFK   HNL      635     4983        661
## 6       HA     51  N385HA    JFK   HNL      611     4983        539
## 7       HA     51  N385HA    JFK   HNL      612     4983        578
## 8       HA     51  N389HA    JFK   HNL      645     4983        603
## 9       HA     51  N384HA    JFK   HNL      640     4983        601
## 10      HA     51  N388HA    JFK   HNL      633     4983        590
## # ... with 336,766 more rows

# The longest flight where destination is not HNL
flights_Testimate %>%
  select(carrier:distance, travelTime) %>%
    filter(dest != 'HNL') %>%
      arrange(desc(distance))

## # A tibble: 336,069 x 8
##    carrier flight tailnum origin  dest air_time distance travelTime
##      <chr>  <int>   <chr>  <chr> <chr>    <dbl>    <dbl>      <dbl>
## 1       UA    887  N587UA    EWR   ANC      418     3370        325
## 2       UA    887  N572UA    EWR   ANC      404     3370        337
## 3       UA    887  N567UA    EWR   ANC      418     3370        385
## 4       UA    887  N559UA    EWR   ANC      388     3370        289
## 5       UA    887  N572UA    EWR   ANC      434     3370        388
## 6       UA    887  N559UA    EWR   ANC      411     3370        309
## 7       UA    887  N528UA    EWR   ANC      404     3370        302
## 8       UA    887  N534UA    EWR   ANC      428     3370        326
## 9       UA    303  N532UA    JFK   SFO      366     2586        334
## 10      DL   1865  N705TW    JFK   SFO      362     2586        382
## # ... with 336,059 more rows

# Besides HNL and ANC
flights_Testimate %>%
  select(carrier:distance, travelTime) %>%
    filter(dest != 'HNL' & dest != "ANC") %>%
      arrange(desc(distance))

## # A tibble: 336,061 x 8
##    carrier flight tailnum origin  dest air_time distance travelTime
##      <chr>  <int>   <chr>  <chr> <chr>    <dbl>    <dbl>      <dbl>
## 1       UA    303  N532UA    JFK   SFO      366     2586        334
## 2       DL   1865  N705TW    JFK   SFO      362     2586        382
## 3       VX     11  N635VA    JFK   SFO      356     2586        320
## 4       B6    643  N625JB    JFK   SFO      350     2586        313
## 5       AA     59  N336AA    JFK   SFO      378     2586        390
## 6       UA    223  N510UA    JFK   SFO      369     2586        329
## 7       AA    179  N325AA    JFK   SFO      389     2586        398
## 8       VX     23  N625VA    JFK   SFO      363     2586        322
## 9       UA    285  N517UA    JFK   SFO      364     2586        328
## 10      B6    641  N590JB    JFK   SFO      349     2586        311
## # ... with 336,051 more rows

# Besides HNL, ANC and JFK to SFO
flights_Testimate %>%
  select(carrier:distance, travelTime) %>%
    filter(dest != 'HNL' & dest != "ANC" & dest != "SFO") %>%
      arrange(desc(distance))

## # A tibble: 322,730 x 8
##    carrier flight tailnum origin  dest air_time distance travelTime
##      <chr>  <int>   <chr>  <chr> <chr>    <dbl>    <dbl>      <dbl>
## 1       B6     91  N523JB    JFK   OAK      330     2576        312
## 2       B6     91  N646JB    JFK   OAK      328     2576        317
## 3       B6     91  N636JB    JFK   OAK      319     2576        278
## 4       B6     91  N524JB    JFK   OAK      351     2576        313
## 5       B6     91  N659JB    JFK   OAK      351     2576        320
## 6       B6     91  N784JB    JFK   OAK      341     2576        361
## 7       B6     91  N517JB    JFK   OAK      345     2576        358
## 8       B6     91  N656JB    JFK   OAK      353     2576        313
## 9       B6     91  N563JB    JFK   OAK      364     2576        333
## 10      B6     91  N705JB    JFK   OAK      346     2576        365
## # ... with 322,720 more rows
…
